1 10 20
100 200 125
201 210 89
900 1000 174
10 1 20
1 1 1
999888 999999 259
100 500 144
150 750 171
750 750 47
10 890 179
123 234 128
444 1000 179
5000 8000 262
100000 110000 354
460 950 179
200000 199999 228
900000 900009 189
850000 850050 264
120850 120950 212
123456 123499 194
12 1000 179
3 95 116
680 2000 182
78 2500 209
456 12345 268
500000 500500 364
123 888 179
999999 999887 259
788 90000 351
3333 5000 238
1000 800 179
500 800 171
300 7000 262
250 100000 351
600 80050 351
10500 45000 324
6700 15000 276
70000 75000 325
71000 75000 325
90000 80000 333
100000 100100 310
100000 100111 310
5600 7000 262
7890 9000 252
50 500 144
65 43 113
89 89 31
101 700 145
500 1000 179
650 300 145
123456 123457 88
7000 8000 252
100000 100005 129
5600 8900 262
4500 4545 184
30 300 128
300 3000 217
303 890 179
10 5000 238
560000 560560 359
560560 560000 359
78 2345 183
100 6700 262
456 789 171
1000 1001 143
4500 9999 262
10000 50000 324
234 234 22
466 888 179
980 333 179
3000 9000 262
123 9000 262
6700 9000 257
89 900 179
900 89 179
99 9999 262
10000 30001 308
456 888 179
100200 101000 266
780 900 179
50000 60000 340
60000 50000 340
5000 10000 262
8700 8700 79
9000 100000 351
789 900 179
1000 5000 238
678 900 179
900 901 55
450 800 171
2000 8001 262
3000 4000 238
600 1000 179
600 800 171
303 606 144
123 333 144
333 555 142
555 889 179
999 999 50
999 998 50
1000 1001 143
123 123 47
171308 336992 443
849894 971272 507
251671 88083 443
407784 712139 509
882970 381930 525
97302 146579 375
888845 970708 507
501012 942673 525
911914 97746 525
810139 739082 468
995023 718026 525
430311 666819 509
938958 333563 525
140369 791240 509
987578 434248 525
739962 763090 424
613125 390813 470
438628 191555 449
155819 509907 449
917832 733054 525
189069 795800 509
366981 374216 392
980355 991186 427
176478 712463 509
819323 494562 509
229520 55078 386
89510 621688 470
996241 628371 525
266015 948139 525
43885 421581 449
778079 602592 509
276704 401994 441
984559 79281 525
336360 529139 470
702678 385370 509
83567 875692 525
568551 185610 470
172674 188401 365
916041 970155 507
690022 306447 509
137816 192376 383
786584 83181 509
128038 41013 354
854138 382496 525
798732 970153 525
677525 605396 509
929226 161379 525
867780 879879 432
383877 533125 470
262148 692674 509
116372 116209 212
947111 655683 525
403477 670471 509
549253 210562 470
652195 568930 509
615746 513744 452
371266 310100 441
359787 994068 525
723711 268126 509
811922 536829 509
723201 143124 509
509252 935233 525
48183 932577 525
566645 475890 470
356889 204751 443
974665 459465 525
810292 6187 509
642000 188448 509
442519 275090 449
70038 940315 525
687672 953762 525
199551 966620 525
706664 577591 509
832948 684090 504
612270 937713 525
544921 701829 509
478485 712931 509
211603 960313 525
158245 386646 443
229788 790428 509
156776 937602 525
839947 597940 525
709877 749631 424
353232 508720 449
387987 419004 449
812604 799693 406
456430 350775 449
476969 491458 413
443814 958879 525
677067 660183 442
191165 890297 525
344633 531114 470
789723 59333 509
855944 257330 525
692917 805339 504
835999 898432 525
3285 452048 449
