...................
----------------------------------------------------------------------
Ran 19 tests in 10.339s

OK
Name             Stmts   Miss Branch BrPart  Cover   Missing
------------------------------------------------------------
Collatz.py          39      0     14      0   100%
TestCollatz.py      83      0      0      0   100%
------------------------------------------------------------
TOTAL              122      0     14      0   100%
