1 10 20
1 10 20
1 10 20
100 200 125
201 210 89
900 1000 174
510 500 111
650 600 145
20 1 21
40 30 107
100 90 119
999 990 112
400 390 121
350 340 126
200 100 125
700 100 145
400 300 144
500 500 111
5 5 6
788 790 78
480 580 142
600 900 179
444 555 142
333 999 179
111 3434 217
222 2222 182
855 856 104
399 699 145
898 1000 174
578 688 145
250 500 144
400 625 142
833 950 179
7000 9900 260
300001 300005 190
500000 600000 470
40504 503050 449
809839 600000 509
1 100000 351
100000 1 351
999999 999998 259
999998 999999 259
999999 999999 259
444444 888888 525
500000 600000 470
500000 600000 470
111111 111111 116
222222 111111 386
1 999999 525
999999 1 525
10 10 7
111111 999999 525
999999 111111 525
222222 222223 117
222223 222222 117
100000 100000 129
123456 123456 62
123456 654321 509
654321 123456 509
121212 242424 443
3434 3434 106
1 500000 449
500000 999999 525
1 250000 443
250000 500000 449
500000 750000 509
750000 999999 525
101010 10101 351
4000 5000 215
5000 6000 236
2 4 8
240 240 22
10000 100 262
100 10000 262
10 20 21
2003 2023 157
999998 888888 507
100001 10001 351
1 100000 351
2 60 113
61 3 113
10 100 119
10 1000 179
10 10000 262
10 100000 351
1999 2000 113
2345 1234 183
100000 10 351
2 1 2
90909 1010 351
1 10 20
10 1 20
560 650 145
328 999999 525
6780 20 262
70367 3145 340
14356 897655 525
897655 14356 525
20304 403020 443
97979 979797 525
51 50001 324
