1 10 20
100 200 125
201 210 89
900 1000 174
10 1 20
1 1 1
1000 900 174
1 999999 525
1000 999999 525
234567 1 443
789012 1000 509
1 17 20
12345 56789 340
1 1000 179
1 100 119
100 1 119
24 8 21
98765 4321 351
7654 3210 262
6543 2109 262
5432 1098 238
4321 987 238
3210 876 217
2109 765 182
1098 654 179
987 543 179
8642 1395 262
7531 2468 262
6420 1357 262
5319 1246 238
4218 1135 238
3127 1024 217
2026 913 182
1935 802 182
1844 691 182
1753 580 182
1662 469 182
1571 358 182
1480 247 182
1389 136 182
1298 25 182
9211 8003 247
8120 7192 252
7029 6281 257
5938 5370 236
4847 4459 197
3756 3548 238
2665 2637 147
1574 1726 180
483 864 171
9370 2584 262
8261 3673 262
7152 2762 262
6043 1851 238
4934 940 238
3825 729 238
2716 618 209
1607 507 182
498 396 142
8385 2691 262
7276 2582 262
6167 2473 238
5058 2364 238
3949 2255 238
2840 2146 209
1731 2037 180
622 1928 182
9513 1076 262
8404 967 262
7295 858 262
6186 749 262
5077 640 238
3968 531 238
2859 422 209
1750 313 182
641 204 144
9432 8197 260
8323 7088 252
7214 6979 195
6105 5870 187
4996 4761 210
3887 3652 238
2778 3543 217
1669 2434 183
560 1325 182
8451 718 262
7342 1609 262
6233 2500 262
5124 3391 238
4015 2282 238
2906 2173 209
1797 1064 182
688 955 179
9579 348 262
8470 1339 262
7361 1230 262
6252 1121 262
5143 3012 238
4034 2903 238
2925 2794 217
1816 1685 180
707 576 171
8598 369 262
7489 1260 262
6380 1151 262
5271 3042 238
4162 2933 238
3053 2824 217
1944 1715 180
835 1606 182
9726 597 262
8617 1488 262
7508 379 262
6399 1270 262
5290 1161 238
4181 3052 238
3072 2943 173
1963 1834 175
854 725 153
9615 326 262
8506 1517 262
7397 2608 262
6288 1499 262
5179 2390 238
4070 1281 238
2961 2172 217
1852 1063 182
743 954 179
432109 345678 449
78901 876543 525
78901 1000 351
19500 200000 383
2002 2023 157
89320 900000 525
807303 85872 509
161475 901043 525
660758 613006 509
245702 141254 443
896 170632 383
55889 716262 509
64369 160620 383
425698 18054 449
495514 367155 449
346202 305839 441
82695 452153 449
373683 877360 525
272078 62651 443
455795 192943 449
524621 524569 302
549210 549073 240
782205 782263 287
422252 422691 325
285142 285524 376
478472 479285 338
485461 484957 320
748121 748121 256
823874 824088 238
359661 358904 317
388654 388444 299
981428 981459 184
830977 832487 419
654572 654612 248
240125 241624 368
532347 536933 377
545105 545167 209
850670 851113 357
978562 976960 383
319662 322868 371
560495 559981 359
831101 831011 251
784445 782843 331
859271 859331 295
998394 998498 277
975465 975228 228
687538 680880 398
786313 786051 269
780568 780732 300
363174 361163 361
261481 261858 288
908012 909802 370
984442 984350 246
931890 931544 277
788836 791387 406
919454 919499 202
575642 575716 297
915504 916839 339
200776 375422 443
806301 401376 509
831253 96593 509
712673 555176 509
731962 746867 424
72365 919207 525
494365 788994 509
951800 634712 525
597362 415623 470
190194 773865 509
726856 872058 525
628072 595962 509
61367 14213 340
